shifter.vcd
$date
	Thu Jul 27 20:59:02 2017
$end
$version
	Icarus Verilog
$end
$timescale
	1s
$end
$scope module top $end
$var wire 1 ! rst $end
$var wire 1 " out $end
$var wire 1 # inp $end
$var wire 1 $ clk $end
$scope module sm $end
$var wire 1 " out $end
$var wire 1 % s2 $end
$var wire 1 & s1 $end
$var wire 1 ! rst $end
$var wire 1 ' ot $end
$var wire 1 # inp $end
$var wire 1 $ clk $end
$scope module C1 $end
$var wire 1 % s2 $end
$var wire 1 & s1 $end
$var wire 1 ! rst $end
$var wire 1 # inp $end
$var wire 1 $ clk $end
$var reg 2 ( state [0:1] $end
$upscope $end
$scope module C2 $end
$var wire 1 ' ot $end
$var wire 1 & s1 $end
$var wire 1 % s2 $end
$var wire 1 # inp $end
$var reg 1 ) in $end
$var reg 1 * out1 $end
$var reg 2 + stat [0:1] $end
$upscope $end
$upscope $end
$scope module tb $end
$var wire 1 $ clk $end
$var wire 1 " out $end
$var wire 1 ! rst $end
$var wire 1 # inp $end
$var reg 1 , clock $end
$var reg 1 # inpu $end
$var reg 1 - ou $end
$var reg 1 . reset $end
$upscope $end
$upscope $end
$enddefinitions $end
#0
$dumpvars
0.
0-
0,
b1 +
1*
1)
b1 (
0'
0&
1%
0$
0#
0"
0!
$end
#15
0%
b0 (
1$
1,
#25
1"
1'
1#
#30
1-
0$
0,
#45
0"
0'
1&
b10 (
1$
1,
#60
0-
0$
0,
#75
1$
1,
#90
0$
0,
#105
1$
1,
#115
0#
#120
0$
0,
#130
1#
#135
1$
1,
#150
0$
0,
#160
0#
#165
0&
b0 (
1$
1,
#175
1"
1'
1#
#180
1-
0$
0,
#195
0"
0'
1&
b10 (
1$
1,
#205
0#
#210
0-
0$
0,
#220
1#
#225
1$
1,
#235
0#
#240
0$
0,
#250
1#
#255
1$
1,
#265
0#
#270
0$
0,
#280
1#
#285
1$
1,
#300
0$
0,
#310
0#
#315
0&
b0 (
1$
1,
#325
1"
1'
1#
#330
1-
0$
0,
#340
0"
0'
0#
#345
1%
b1 (
0-
1$
1,
#360
0$
0,
#375
0%
b0 (
1$
1,
#385
1"
1'
1#
#390
1-
0$
0,
#400
0"
0'
0#
#405
1%
b1 (
0-
1$
1,
#415
1#
#420
0$
0,
#435
1&
0%
b10 (
1$
1,
#450
0$
0,
#465
1$
1,
#475
0#
#480
0$
0,
#495
0&
b0 (
1$
1,
#510
0$
0,
#525
1%
b1 (
1$
1,
#535
1#
#540
0$
0,
#550
0#
#555
0%
b0 (
1$
1,
#565
1"
1'
1#
#570
1-
0$
0,
#585
0"
0'
1&
b10 (
1$
1,
#600
0-
0$
0,
#615
1$
1,
#630
0$
0,
#640
0#
#645
0&
b0 (
1$
1,
#660
0$
0,
#670
1"
1'
1#
#675
0"
0'
1&
b10 (
1-
1$
1,
#690
0-
0$
0,
#705
1$
1,
#715
0#
#720
0$
0,
#735
0&
b0 (
1$
1,
#750
0$
0,
#765
1%
b1 (
1$
1,
#780
0$
0,
#790
1#
#795
1&
0%
b10 (
1$
1,
#805
0#
#810
0$
0,
#825
0&
b0 (
1$
1,
#835
1"
1'
1#
#840
1-
0$
0,
#855
0"
0'
1&
b10 (
1$
1,
#865
0#
#870
0-
0$
0,
#885
0&
b0 (
1$
1,
#900
0$
0,
#915
1%
b1 (
1$
1,
#930
0$
0,
#940
1#
#945
1&
0%
b10 (
1$
1,
#960
0$
0,
#975
1$
1,
#990
0$
0,
#1005
1$
1,
#1015
0#
#1020
0$
0,
#1035
0&
b0 (
1$
1,
#1045
1"
1'
1#
#1050
1-
0$
0,
#1065
0"
0'
1&
b10 (
1$
1,
#1080
0-
0$
0,
#1090
0#
#1095
0&
b0 (
1$
1,
#1110
0$
0,
#1120
1"
1'
1#
#1125
0"
0'
1&
b10 (
1-
1$
1,
#1140
0-
0$
0,
#1150
0#
#1155
0&
b0 (
1$
1,
#1165
1"
1'
1#
#1170
1-
0$
0,
#1185
0"
0'
1&
b10 (
1$
1,
#1195
0#
#1200
0-
0$
0,
#1210
1#
#1215
1$
1,
#1230
0$
0,
#1245
1$
1,
#1255
0#
#1260
0$
0,
#1270
1#
#1275
1$
1,
#1290
0$
0,
#1300
0#
#1305
0&
b0 (
1$
1,
#1320
0$
0,
#1335
1%
b1 (
1$
1,
#1350
0$
0,
#1360
1#
#1365
1&
0%
b10 (
1$
1,
#1380
0$
0,
#1390
0#
#1395
0&
b0 (
1$
1,
#1410
0$
0,
#1420
1"
1'
1#
#1425
0"
0'
1&
b10 (
1-
1$
1,
#1440
0-
0$
0,
#1455
1$
1,
#1470
0$
0,
#1485
1$
1,
#1495
0#
#1500
0$
0,
#1510
1#
#1515
1$
1,
#1530
0$
0,
#1545
1$
1,
#1555
0#
#1560
0$
0,
#1575
0&
b0 (
1$
1,
#1590
0$
0,
#1605
1%
b1 (
1$
1,
#1620
0$
0,
#1635
0%
b0 (
1$
1,
#1650
0$
0,
#1660
1"
1'
1#
#1665
0"
0'
1&
b10 (
1-
1$
1,
#1680
0-
0$
0,
#1695
1$
1,
#1710
0$
0,
#1725
1$
1,
#1735
0#
#1740
0$
0,
#1750
1#
#1755
1$
1,
#1770
0$
0,
#1780
0#
#1785
0&
b0 (
1$
1,
#1800
0$
0,
#1810
1"
1'
1#
#1815
0"
0'
1&
b10 (
1-
1$
1,
#1830
0-
0$
0,
#1840
0#
#1845
0&
b0 (
1$
1,
#1855
1"
1'
1#
#1860
1-
0$
0,
#1875
0"
0'
1&
b10 (
1$
1,
#1890
0-
0$
0,
#1905
1$
1,
#1915
0#
#1920
0$
0,
#1935
0&
b0 (
1$
1,
#1950
0$
0,
#1960
1"
1'
1#
#1965
0"
0'
1&
b10 (
1-
1$
1,
#1975
0#
#1980
0-
0$
0,
#1995
0&
b0 (
1$
1,
#2010
0$
0,
#2020
1"
1'
1#
#2025
0"
0'
1&
b10 (
1-
1$
1,
#2040
0-
0$
0,
#2050
0#
#2055
0&
b0 (
1$
1,
#2070
0$
0,
#2080
1"
1'
1#
#2085
0"
0'
1&
b10 (
1-
1$
1,
#2095
0#
#2100
0-
0$
0,
#2115
0&
b0 (
1$
1,
#2130
0$
0,
#2140
1"
1'
1#
#2145
0"
0'
1&
b10 (
1-
1$
1,
#2155
0#
#2160
0-
0$
0,
#2175
0&
b0 (
1$
1,
#2185
1"
1'
1#
#2190
1-
0$
0,
#2200
0"
0'
0#
#2205
1%
b1 (
0-
1$
1,
#2215
1#
#2220
0$
0,
#2235
1&
0%
b10 (
1$
1,
#2250
0$
0,
#2265
1$
1,
#2280
0$
0,
#2290
0#
#2295
0&
b0 (
1$
1,
#2310
0$
0,
#2325
1%
b1 (
1$
1,
#2335
1#
#2340
0$
0,
#2350
0#
#2355
0%
b0 (
1$
1,
#2370
0$
0,
#2380
1"
1'
1#
#2385
0"
0'
1&
b10 (
1-
1$
1,
#2400
0-
0$
0,
#2410
0#
#2415
0&
b0 (
1$
1,
#2430
0$
0,
#2445
1%
b1 (
1$
1,
#2455
1#
#2460
0$
0,
#2475
1&
0%
b10 (
1$
1,
#2485
0#
#2490
0$
0,
#2505
0&
b0 (
1$
1,
#2520
0$
0,
#2530
1"
1'
1#
#2535
0"
0'
1&
b10 (
1-
1$
1,
#2550
0-
0$
0,
#2560
0#
#2565
0&
b0 (
1$
1,
#2580
0$
0,
#2595
1%
b1 (
1$
1,
#2605
1#
#2610
0$
0,
#2620
0#
#2625
0%
b0 (
1$
1,
#2640
0$
0,
#2650
1"
1'
1#
#2655
0"
0'
1&
b10 (
1-
1$
1,
#2665
0#
#2670
0-
0$
0,
#2685
0&
b0 (
1$
1,
#2700
0$
0,
#2710
1"
1'
1#
#2715
0"
0'
1&
b10 (
1-
1$
1,
#2725
0#
#2730
0-
0$
0,
#2740
1#
#2745
1$
1,
#2760
0$
0,
#2770
0#
#2775
0&
b0 (
1$
1,
#2790
0$
0,
#2805
1%
b1 (
1$
1,
#2820
0$
0,
#2830
1#
#2835
1&
0%
b10 (
1$
1,
#2845
0#
#2850
0$
0,
#2865
0&
b0 (
1$
1,
#2880
0$
0,
#2895
1%
b1 (
1$
1,
#2905
1#
#2910
0$
0,
#2925
1&
0%
b10 (
1$
1,
#2940
0$
0,
#2950
0#
#2955
0&
b0 (
1$
1,
#2965
1"
1'
1#
#2970
1-
0$
0,
#2985
0"
0'
1&
b10 (
1$
1,
#3000
0-
0$
0,
#3010
0#
#3015
0&
b0 (
1$
1,
#3030
0$
0,
#3040
1"
1'
1#
#3045
0"
0'
1&
b10 (
1-
1$
1,
#3060
0-
0$
0,
#3075
1$
1,
#3090
0$
0,
#3105
1$
1,
#3115
0#
#3120
0$
0,
#3130
1#
#3135
1$
1,
#3150
0$
0,
#3160
0#
#3165
0&
b0 (
1$
1,
#3180
0$
0,
#3195
1%
b1 (
1$
1,
#3210
0$
0,
#3220
1#
#3225
1&
0%
b10 (
1$
1,
#3240
0$
0,
#3250
0#
#3255
0&
b0 (
1$
1,
#3270
0$
0,
#3280
1"
1'
1#
#3285
0"
0'
1&
b10 (
1-
1$
1,
#3295
0#
#3300
0-
0$
0,
#3315
0&
b0 (
1$
1,
#3325
1"
1'
1#
#3330
1-
0$
0,
#3340
0"
0'
0#
#3345
1%
b1 (
0-
1$
1,
#3360
0$
0,
#3370
1#
#3375
1&
0%
b10 (
1$
1,
#3385
0#
#3390
0$
0,
#3405
0&
b0 (
1$
1,
#3415
1"
1'
1#
#3420
1-
0$
0,
#3435
0"
0'
1&
b10 (
1$
1,
#3450
0-
0$
0,
#3460
0#
#3465
0&
b0 (
1$
1,
#3480
0$
0,
#3495
1%
b1 (
1$
1,
#3505
1#
#3510
0$
0,
#3520
0#
#3525
0%
b0 (
1$
1,
#3540
0$
0,
#3550
1"
1'
1#
#3555
0"
0'
1&
b10 (
1-
1$
1,
#3565
0#
#3570
0-
0$
0,
#3585
0&
b0 (
1$
1,
#3600
0$
0,
#3615
1%
b1 (
1$
1,
#3625
1#
#3630
0$
0,
#3640
0#
#3645
0%
b0 (
1$
1,
#3660
0$
0,
#3675
1%
b1 (
1$
1,
#3685
1#
#3690
0$
0,
#3705
1&
0%
b10 (
1$
1,
#3715
0#
#3720
0$
0,
#3730
1#
#3735
1$
1,
#3750
0$
0,
#3765
1$
1,
#3780
0$
0,
#3790
0#
#3795
0&
b0 (
1$
1,
#3805
1"
1'
1#
#3810
1-
0$
0,
#3825
0"
0'
1&
b10 (
1$
1,
#3840
0-
0$
0,
#3850
0#
#3855
0&
b0 (
1$
1,
#3870
0$
0,
#3880
1"
1'
1#
#3885
0"
0'
1&
b10 (
1-
1$
1,
#3895
0#
#3900
0-
0$
0,
#3915
0&
b0 (
1$
1,
#3925
1"
1'
1#
#3930
1-
0$
0,
#3945
0"
0'
1&
b10 (
1$
1,
#3955
0#
#3960
0-
0$
0,
#3975
0&
b0 (
1$
1,
#3985
1"
1'
1#
#3990
1-
0$
0,
#4000
0"
0'
0#
#4005
1%
b1 (
0-
1$
1,
#4020
0$
0,
#4030
1#
#4035
1&
0%
b10 (
1$
1,
#4045
0#
#4050
0$
0,
#4060
1#
#4065
1$
1,
#4080
0$
0,
#4090
0#
#4095
0&
b0 (
1$
1,
#4105
1"
1'
1#
#4110
1-
0$
0,
#4120
0"
0'
0#
#4125
1%
b1 (
0-
1$
1,
#4135
1#
#4140
0$
0,
#4150
0#
#4155
0%
b0 (
1$
1,
#4170
0$
0,
#4180
1"
1'
1#
#4185
0"
0'
1&
b10 (
1-
1$
1,
#4195
0#
#4200
0-
0$
0,
#4215
0&
b0 (
1$
1,
#4230
0$
0,
#4240
1"
1'
1#
#4245
0"
0'
1&
b10 (
1-
1$
1,
#4260
0-
0$
0,
#4275
1$
1,
#4290
0$
0,
#4305
1$
1,
#4315
0#
#4320
0$
0,
#4330
1#
#4335
1$
1,
#4350
0$
0,
#4365
1$
1,
#4375
0#
#4380
0$
0,
#4395
0&
b0 (
1$
1,
#4410
0$
0,
#4425
1%
b1 (
1$
1,
#4440
0$
0,
#4455
0%
b0 (
1$
1,
#4465
1"
1'
1#
#4470
1-
0$
0,
#4485
0"
0'
1&
b10 (
1$
1,
#4500
0-
0$
0,
#4515
1$
1,
#4530
0$
0,
#4545
1$
1,
#4560
0$
0,
#4570
0#
#4575
0&
b0 (
1$
1,
#4585
1"
1'
1#
#4590
1-
0$
0,
#4605
0"
0'
1&
b10 (
1$
1,
#4620
0-
0$
0,
#4635
1$
1,
#4650
0$
0,
#4665
1$
1,
#4680
0$
0,
#4695
1$
1,
#4705
0#
#4710
0$
0,
#4725
0&
b0 (
1$
1,
#4735
1"
1'
1#
#4740
1-
0$
0,
#4755
0"
0'
1&
b10 (
1$
1,
#4765
0#
#4770
0-
0$
0,
#4785
0&
b0 (
1$
1,
#4800
0$
0,
#4815
1%
b1 (
1$
1,
#4825
1#
#4830
0$
0,
#4840
0#
#4845
0%
b0 (
1$
1,
#4860
0$
0,
#4875
1%
b1 (
1$
1,
#4890
0$
0,
#4905
0%
b0 (
1$
1,
#4920
0$
0,
#4930
1"
1'
1#
#4935
0"
0'
1&
b10 (
1-
1$
1,
#4945
0#
#4950
0-
0$
0,
#4965
0&
b0 (
1$
1,
#4975
1"
1'
1#
#4980
1-
0$
0,
#4990
0"
0'
0#
#4995
1%
b1 (
0-
1$
1,
#5010
0$
0,
#5025
0%
b0 (
1$
1,
#5040
0$
0,
#5050
1"
1'
1#
#5055
0"
0'
1&
b10 (
1-
1$
1,
#5070
0-
0$
0,
#5085
1$
1,
#5100
0$
0,
#5115
1$
1,
#5125
0#
#5130
0$
0,
#5140
1#
#5145
1$
1,
#5160
0$
0,
#5175
1$
1,
#5185
0#
#5190
0$
0,
#5200
1#
#5205
1$
1,
#5215
0#
#5220
0$
0,
#5235
0&
b0 (
1$
1,
#5245
1"
1'
1#
#5250
1-
0$
0,
#5265
0"
0'
1&
b10 (
1$
1,
#5275
0#
#5280
0-
0$
0,
#5290
1#
#5295
1$
1,
#5305
0#
#5310
0$
0,
#5325
0&
b0 (
1$
1,
#5335
1"
1'
1#
#5340
1-
0$
0,
#5350
0"
0'
0#
#5355
1%
b1 (
0-
1$
1,
#5370
0$
0,
#5385
0%
b0 (
1$
1,
#5400
0$
0,
#5410
1"
1'
1#
#5415
0"
0'
1&
b10 (
1-
1$
1,
#5430
0-
0$
0,
#5445
1$
1,
#5460
0$
0,
#5470
0#
#5475
0&
b0 (
1$
1,
#5485
1"
1'
1#
#5490
1-
0$
0,
#5505
0"
0'
1&
b10 (
1$
1,
#5520
0-
0$
0,
#5535
1$
1,
#5550
0$
0,
#5565
1$
1,
#5580
0$
0,
#5590
0#
#5595
0&
b0 (
1$
1,
#5605
1"
1'
1#
#5610
1-
0$
0,
#5620
0"
0'
0#
#5625
1%
b1 (
0-
1$
1,
#5635
1#
#5640
0$
0,
#5650
0#
#5655
0%
b0 (
1$
1,
#5670
0$
0,
#5680
1"
1'
1#
#5685
0"
0'
1&
b10 (
1-
1$
1,
#5695
0#
#5700
0-
0$
0,
#5715
0&
b0 (
1$
1,
#5730
0$
0,
#5745
1%
b1 (
1$
1,
#5760
0$
0,
#5770
1#
#5775
1&
0%
b10 (
1$
1,
#5785
0#
#5790
0$
0,
#5805
0&
b0 (
1$
1,
#5820
0$
0,
#5835
1%
b1 (
1$
1,
#5850
0$
0,
#5865
0%
b0 (
1$
1,
#5875
1"
1'
1#
#5880
1-
0$
0,
#5890
0"
0'
0#
#5895
1%
b1 (
0-
1$
1,
#5905
1#
#5910
0$
0,
#5920
0#
#5925
0%
b0 (
1$
1,
#5940
0$
0,
#5950
1"
1'
1#
#5955
0"
0'
1&
b10 (
1-
1$
1,
#5965
0#
#5970
0-
0$
0,
#5980
1#
#5985
1$
1,
#6000
0$
0,
#6010
0#
#6015
0&
b0 (
1$
1,
#6025
1"
1'
1#
#6030
1-
0$
0,
#6040
0"
0'
0#
#6045
1%
b1 (
0-
1$
1,
#6055
1#
#6060
0$
0,
#6070
0#
#6075
0%
b0 (
1$
1,
#6090
0$
0,
#6105
1%
b1 (
1$
1,
#6120
0$
0,
#6130
1#
#6135
1&
0%
b10 (
1$
1,
#6145
0#
#6150
0$
0,
#6160
1#
#6165
1$
1,
#6175
0#
#6180
0$
0,
#6190
1#
#6195
1$
1,
#6210
0$
0,
#6220
0#
#6225
0&
b0 (
1$
1,
#6235
1"
1'
1#
#6240
1-
0$
0,
#6250
0"
0'
0#
#6255
1%
b1 (
0-
1$
1,
#6265
1#
#6270
0$
0,
#6285
1&
0%
b10 (
1$
1,
#6300
0$
0,
#6310
0#
#6315
0&
b0 (
1$
1,
#6325
1"
1'
1#
#6330
1-
0$
0,
#6345
0"
0'
1&
b10 (
1$
1,
#6355
0#
#6360
0-
0$
0,
#6375
0&
b0 (
1$
1,
#6385
1"
1'
1#
#6390
1-
0$
0,
#6405
0"
0'
1&
b10 (
1$
1,
#6415
0#
#6420
0-
0$
0,
#6435
0&
b0 (
1$
1,
#6445
1"
1'
1#
#6450
1-
0$
0,
#6465
0"
0'
1&
b10 (
1$
1,
#6475
0#
#6480
0-
0$
0,
#6495
0&
b0 (
1$
1,
#6505
1"
1'
1#
#6510
1-
0$
0,
#6520
0"
0'
0#
#6525
1%
b1 (
0-
1$
1,
#6540
0$
0,
#6550
1#
#6555
1&
0%
b10 (
1$
1,
#6570
0$
0,
#6580
0#
#6585
0&
b0 (
1$
1,
#6600
0$
0,
#6610
1"
1'
1#
#6615
0"
0'
1&
b10 (
1-
1$
1,
#6625
0#
#6630
0-
0$
0,
#6645
0&
b0 (
1$
1,
#6655
1"
1'
1#
#6660
1-
0$
0,
#6675
0"
0'
1&
b10 (
1$
1,
#6685
0#
#6690
0-
0$
0,
#6700
1#
#6705
1$
1,
#6715
0#
#6720
0$
0,
#6730
1#
#6735
1$
1,
#6750
0$
0,
#6760
0#
#6765
0&
b0 (
1$
1,
#6775
1"
1'
1#
#6780
1-
0$
0,
#6795
0"
0'
1&
b10 (
1$
1,
#6810
0-
0$
0,
#6820
0#
#6825
0&
b0 (
1$
1,
#6835
1"
1'
1#
#6840
1-
0$
0,
#6855
0"
0'
1&
b10 (
1$
1,
#6870
0-
0$
0,
#6880
0#
#6885
0&
b0 (
1$
1,
#6900
0$
0,
#6910
1"
1'
1#
#6915
0"
0'
1&
b10 (
1-
1$
1,
#6925
0#
#6930
0-
0$
0,
#6945
0&
b0 (
1$
1,
#6955
1"
1'
1#
#6960
1-
0$
0,
#6970
0"
0'
0#
#6975
1%
b1 (
0-
1$
1,
#6990
0$
0,
#7000
1#
#7005
1&
0%
b10 (
1$
1,
#7020
0$
0,
#7030
0#
#7035
0&
b0 (
1$
1,
#7045
1"
1'
1#
#7050
1-
0$
0,
#7060
0"
0'
0#
#7065
1%
b1 (
0-
1$
1,
#7075
1#
#7080
0$
0,
#7095
1&
0%
b10 (
1$
1,
#7110
0$
0,
#7125
1$
1,
#7135
0#
#7140
0$
0,
#7155
0&
b0 (
1$
1,
#7165
1"
1'
1#
#7170
1-
0$
0,
#7180
0"
0'
0#
#7185
1%
b1 (
0-
1$
1,
#7195
1#
#7200
0$
0,
#7210
0#
#7215
0%
b0 (
1$
1,
#7225
1"
1'
1#
#7230
1-
0$
0,
#7245
0"
0'
1&
b10 (
1$
1,
#7255
0#
#7260
0-
0$
0,
#7275
0&
b0 (
1$
1,
#7285
1"
1'
1#
#7290
1-
0$
0,
#7305
0"
0'
1&
b10 (
1$
1,
#7320
0-
0$
0,
#7330
0#
#7335
0&
b0 (
1$
1,
#7350
0$
0,
#7360
1"
1'
1#
#7365
0"
0'
1&
b10 (
1-
1$
1,
#7375
0#
#7380
0-
0$
0,
#7395
0&
b0 (
1$
1,
#7405
1"
1'
1#
#7410
1-
0$
0,
#7425
0"
0'
1&
b10 (
1$
1,
#7440
0-
0$
0,
#7450
0#
#7455
0&
b0 (
1$
1,
#7465
1"
1'
1#
#7470
1-
0$
0,
#7485
0"
0'
1&
b10 (
1$
1,
#7495
0#
#7500
0-
0$
0,
#7515
0&
b0 (
1$
1,
#7530
0$
0,
#7540
1"
1'
1#
#7545
0"
0'
1&
b10 (
1-
1$
1,
#7560
0-
0$
0,
#7575
1$
1,
#7585
0#
#7590
0$
0,
#7605
0&
b0 (
1$
1,
#7620
0$
0,
#7630
1"
1'
1#
#7635
0"
0'
1&
b10 (
1-
1$
1,
#7650
0-
0$
0,
#7665
1$
1,
#7680
0$
0,
#7690
0#
#7695
0&
b0 (
1$
1,
#7705
1"
1'
1#
#7710
1-
0$
0,
#7725
0"
0'
1&
b10 (
1$
1,
#7740
0-
0$
0,
#7755
1$
1,
#7770
0$
0,
#7785
1$
1,
#7800
0$
0,
#7810
0#
#7815
0&
b0 (
1$
1,
#7825
1"
1'
1#
#7830
1-
0$
0,
#7840
0"
0'
0#
#7845
1%
b1 (
0-
1$
1,
#7860
0$
0,
#7875
0%
b0 (
1$
1,
#7885
1"
1'
1#
#7890
1-
0$
0,
#7905
0"
0'
1&
b10 (
1$
1,
#7920
0-
0$
0,
#7935
1$
1,
#7950
0$
0,
#7965
1$
1,
#7980
0$
0,
#7995
1$
1,
#8010
0$
0,
#8020
0#
#8025
0&
b0 (
1$
1,
#8040
0$
0,
#8055
1%
b1 (
1$
1,
#8065
1#
#8070
0$
0,
#8080
0#
#8085
0%
b0 (
1$
1,
#8100
0$
0,
#8115
1%
b1 (
1$
1,
#8125
1#
#8130
0$
0,
#8145
1&
0%
b10 (
1$
1,
#8155
0#
#8160
0$
0,
#8175
0&
b0 (
1$
1,
#8190
0$
0,
#8200
1"
1'
1#
#8205
0"
0'
1&
b10 (
1-
1$
1,
#8220
0-
0$
0,
#8230
0#
#8235
0&
b0 (
1$
1,
#8245
1"
1'
1#
#8250
1-
0$
0,
#8260
0"
0'
0#
#8265
1%
b1 (
0-
1$
1,
#8275
1#
#8280
0$
0,
#8290
0#
#8295
0%
b0 (
1$
1,
#8310
0$
0,
#8325
1%
b1 (
1$
1,
#8335
1#
#8340
0$
0,
#8355
1&
0%
b10 (
1$
1,
#8370
0$
0,
#8380
0#
#8385
0&
b0 (
1$
1,
#8395
1"
1'
1#
#8400
1-
0$
0,
#8410
0"
0'
0#
#8415
1%
b1 (
0-
1$
1,
#8425
1#
#8430
0$
0,
#8440
0#
#8445
0%
b0 (
1$
1,
#8455
1"
1'
1#
#8460
1-
0$
0,
#8475
0"
0'
1&
b10 (
1$
1,
#8485
0#
#8490
0-
0$
0,
#8505
0&
b0 (
1$
1,
#8520
0$
0,
#8535
1%
b1 (
1$
1,
#8545
1#
#8550
0$
0,
#8565
1&
0%
b10 (
1$
1,
#8575
0#
#8580
0$
0,
#8595
0&
b0 (
1$
1,
#8605
1"
1'
1#
#8610
1-
0$
0,
#8620
0"
0'
0#
#8625
1%
b1 (
0-
1$
1,
#8635
1#
#8640
0$
0,
#8650
0#
#8655
0%
b0 (
1$
1,
#8665
1"
1'
1#
#8670
1-
0$
0,
#8685
0"
0'
1&
b10 (
1$
1,
#8695
0#
#8700
0-
0$
0,
#8710
1#
#8715
1$
1,
#8730
0$
0,
#8740
0#
#8745
0&
b0 (
1$
1,
#8760
0$
0,
#8775
1%
b1 (
1$
1,
#8790
0$
0,
#8800
1#
#8805
1&
0%
b10 (
1$
1,
#8820
0$
0,
#8835
1$
1,
#8850
0$
0,
#8865
1$
1,
#8875
0#
#8880
0$
0,
#8895
0&
b0 (
1$
1,
#8910
0$
0,
#8925
1%
b1 (
1$
1,
#8940
0$
0,
#8955
0%
b0 (
1$
1,
#8970
0$
0,
#8980
1"
1'
1#
#8985
0"
0'
1&
b10 (
1-
1$
1,
#9000
0-
0$
0,
#9015
1$
1,
#9030
0$
0,
#9045
1$
1,
#9060
0$
0,
#9075
1$
1,
#9085
0#
#9090
0$
0,
#9105
0&
b0 (
1$
1,
#9120
0$
0,
#9135
1%
b1 (
1$
1,
#9150
0$
0,
#9165
0%
b0 (
1$
1,
#9175
1"
1'
1#
#9180
1-
0$
0,
#9195
0"
0'
1&
b10 (
1$
1,
#9205
0#
#9210
0-
0$
0,
#9220
1#
#9225
1$
1,
#9235
0#
#9240
0$
0,
#9250
1#
#9255
1$
1,
#9270
0$
0,
#9285
1$
1,
#9295
0#
#9300
0$
0,
#9315
0&
b0 (
1$
1,
#9330
0$
0,
#9340
1"
1'
1#
#9345
0"
0'
1&
b10 (
1-
1$
1,
#9360
0-
0$
0,
#9370
0#
#9375
0&
b0 (
1$
1,
#9385
1"
1'
1#
#9390
1-
0$
0,
#9400
0"
0'
0#
#9405
1%
b1 (
0-
1$
1,
#9420
0$
0,
#9435
0%
b0 (
1$
1,
#9450
0$
0,
#9465
1%
b1 (
1$
1,
#9480
0$
0,
#9490
1#
#9495
1&
0%
b10 (
1$
1,
#9505
0#
#9510
0$
0,
#9525
0&
b0 (
1$
1,
#9535
1"
1'
1#
#9540
1-
0$
0,
#9550
0"
0'
0#
#9555
1%
b1 (
0-
1$
1,
#9570
0$
0,
#9580
1#
#9585
1&
0%
b10 (
1$
1,
#9600
0$
0,
#9615
1$
1,
#9625
0#
#9630
0$
0,
#9645
0&
b0 (
1$
1,
#9655
1"
1'
1#
#9660
1-
0$
0,
#9675
0"
0'
1&
b10 (
1$
1,
#9690
0-
0$
0,
#9705
1$
1,
#9715
0#
#9720
0$
0,
#9730
1#
#9735
1$
1,
#9750
0$
0,
#9765
1$
1,
#9780
0$
0,
#9790
0#
#9795
0&
b0 (
1$
1,
#9805
1"
1'
1#
#9810
1-
0$
0,
#9820
0"
0'
0#
#9825
1%
b1 (
0-
1$
1,
#9840
0$
0,
#9850
1#
#9855
1&
0%
b10 (
1$
1,
#9865
0#
#9870
0$
0,
#9885
0&
b0 (
1$
1,
#9895
1"
1'
1#
#9900
1-
0$
0,
#9910
0"
0'
0#
#9915
1%
b1 (
0-
1$
1,
#9930
0$
0,
#9945
0%
b0 (
1$
1,
#9960
0$
0,
#9975
1%
b1 (
1$
1,
#9990
0$
0,
#10000
1#
#10005
1&
0%
b10 (
1$
1,
#10020
0$
0,
#10030
0#
#10035
0&
b0 (
1$
1,
#10050
0$
0,
#10060
1"
1'
1#
#10065
0"
0'
1&
b10 (
1-
1$
1,
#10080
0-
0$
0,
#10095
1$
1,
#10110
0$
0,
#10125
1$
1,
#10140
0$
0,
#10155
1$
1,
#10165
0#
#10170
0$
0,
#10180
1#
#10185
1$
1,
#10195
0#
#10200
0$
0,
#10215
0&
b0 (
1$
1,
#10230
0$
0,
#10240
1"
1'
1#
#10245
0"
0'
1&
b10 (
1-
1$
1,
#10260
0-
0$
0,
#10270
0#
#10275
0&
b0 (
1$
1,
#10285
1"
1'
1#
#10290
1-
0$
0,
#10305
0"
0'
1&
b10 (
1$
1,
#10320
0-
0$
0,
#10330
0#
#10335
0&
b0 (
1$
1,
#10350
0$
0,
#10365
1%
b1 (
1$
1,
#10380
0$
0,
#10390
1#
#10395
1&
0%
b10 (
1$
1,
#10410
0$
0,
#10425
1$
1,
#10435
0#
#10440
0$
0,
#10450
1#
#10455
1$
1,
#10465
0#
#10470
0$
0,
#10485
0&
b0 (
1$
1,
#10500
0$
0,
#10515
1%
b1 (
1$
1,
#10530
0$
0,
#10545
0%
b0 (
1$
1,
#10560
0$
0,
#10570
1"
1'
1#
#10575
0"
0'
1&
b10 (
1-
1$
1,
#10585
0#
#10590
0-
0$
0,
#10605
0&
b0 (
1$
1,
#10615
1"
1'
1#
#10620
1-
0$
0,
#10635
0"
0'
1&
b10 (
1$
1,
#10650
0-
0$
0,
#10665
1$
1,
#10680
0$
0,
#10690
0#
#10695
0&
b0 (
1$
1,
#10710
0$
0,
#10725
1%
b1 (
1$
1,
#10740
0$
0,
#10750
1#
#10755
1&
0%
b10 (
1$
1,
#10770
0$
0,
#10780
0#
#10785
0&
b0 (
1$
1,
#10800
0$
0,
#10810
1"
1'
1#
#10815
0"
0'
1&
b10 (
1-
1$
1,
#10830
0-
0$
0,
#10845
1$
1,
#10860
0$
0,
#10875
1$
1,
#10885
0#
#10890
0$
0,
#10905
0&
b0 (
1$
1,
#10920
0$
0,
#10930
1"
1'
1#
#10935
0"
0'
1&
b10 (
1-
1$
1,
#10945
0#
#10950
0-
0$
0,
#10960
1#
#10965
1$
1,
#10975
0#
#10980
0$
0,
#10995
0&
b0 (
1$
1,
#11010
0$
0,
#11025
1%
b1 (
1$
1,
#11040
0$
0,
#11050
1#
#11055
1&
0%
b10 (
1$
1,
#11065
0#
#11070
0$
0,
#11080
1#
#11085
1$
1,
#11100
0$
0,
#11110
0#
#11115
0&
b0 (
1$
1,
#11125
1"
1'
1#
#11130
1-
0$
0,
#11145
0"
0'
1&
b10 (
1$
1,
#11155
0#
#11160
0-
0$
0,
#11170
1#
#11175
1$
1,
#11185
0#
#11190
0$
0,
#11200
1#
#11205
1$
1,
#11220
0$
0,
#11230
0#
#11235
0&
b0 (
1$
1,
#11250
0$
0,
#11260
1"
1'
1#
#11265
0"
0'
1&
b10 (
1-
1$
1,
#11280
0-
0$
0,
#11290
0#
#11295
0&
b0 (
1$
1,
#11310
0$
0,
#11325
1%
b1 (
1$
1,
#11340
0$
0,
#11350
1#
#11355
1&
0%
b10 (
1$
1,
#11370
0$
0,
#11385
1$
1,
#11395
0#
#11400
0$
0,
#11415
0&
b0 (
1$
1,
#11425
1"
1'
1#
#11430
1-
0$
0,
#11445
0"
0'
1&
b10 (
1$
1,
#11460
0-
0$
0,
#11475
1$
1,
#11485
0#
#11490
0$
0,
#11505
0&
b0 (
1$
1,
#11515
1"
1'
1#
#11520
1-
0$
0,
#11535
0"
0'
1&
b10 (
1$
1,
#11545
0#
#11550
0-
0$
0,
#11565
0&
b0 (
1$
1,
#11575
1"
1'
1#
#11580
1-
0$
0,
